<?xml version="1.0" encoding="UTF-8" standalone="no"?>
<svg xmlns="http://www.w3.org/2000/svg"
     version="1.1"
     width="500"
     height="500"
     viewBox="0 0 500 500">
    <g>

        <!-- Light gray background -->
        <rect id="background.primary" fill="#f3f3f3" x="0" y="0" width="500" height="500"/>

        <!-- Positioning for blue cube -->
        <svg width="175" height="175" viewBox="0 0 175 175" version="1.1" x="163" y="163" fill="#303841">
            <!-- Cube -->
            <polygon points="87,0
            162,43.75
            162,131.25
            87,175
            12,131.25
            12,43.75" fill="#303841"/>
        </svg>

        <!-- Positioning for light gray lines (manually added to move white lines to center) -->
        <svg width="175" height="175" viewBox="0 0 175 175" version="1.1" x="0" y="69">
            <!-- Light gray lines -->
            <path d="M 178.443 329.438 l 134.543 -247.05 l -2.086 -1.164 l -134.544 247.05 l 2.086 1.164 z
            M 250 330 l 134.543 -247.05 l -2.085 -1.164 l -134.544 247.05 l 2.086 1.164 z
            M 134 362 l 130.971 -279.59 l -2.151 -1.033 l -130.972 279.59 l 2.151 1.033 z
            M 327.725 332.21 l -209.554 -255.486 l -1.833 1.54 l 209.555 255.487 l 1.833 -1.54 z
            M 369.926 296.07 l -200.03 -291.641 l -1.956 1.374 l 200.029 291.641 l 1.956 -1.374 z" fill="#f3f3f3" fill-rule="evenodd"/>
        </svg>
    </g>
</svg>
